%YAML 1.1
%TAG !u! tag:unity3d.com,2011:
--- !u!114 &11400000
MonoBehaviour:
  m_ObjectHideFlags: 0
  m_CorrespondingSourceObject: {fileID: 0}
  m_PrefabInstance: {fileID: 0}
  m_PrefabAsset: {fileID: 0}
  m_GameObject: {fileID: 0}
  m_Enabled: 1
  m_EditorHideFlags: 0
  m_Script: {fileID: 11500000, guid: 378e03531887d9548b4266d35ad76f7a, type: 3}
  m_Name: CameraFocusVariable
  m_EditorClassIdentifier: 
  minDist: 10
  maxDist: 100
  pos: {x: 0, y: 0, z: 0}
