%YAML 1.1
%TAG !u! tag:unity3d.com,2011:
--- !u!114 &11400000
MonoBehaviour:
  m_ObjectHideFlags: 0
  m_CorrespondingSourceObject: {fileID: 0}
  m_PrefabInstance: {fileID: 0}
  m_PrefabAsset: {fileID: 0}
  m_GameObject: {fileID: 0}
  m_Enabled: 1
  m_EditorHideFlags: 0
  m_Script: {fileID: 11500000, guid: b54392b9c6769ed4bb7725f746b62a80, type: 3}
  m_Name: Wood
  m_EditorClassIdentifier: 
  factory: {fileID: 11400000, guid: 8079575493975694799dc4b73d9acff7, type: 2}
