%YAML 1.1
%TAG !u! tag:unity3d.com,2011:
--- !u!114 &11400000
MonoBehaviour:
  m_ObjectHideFlags: 0
  m_CorrespondingSourceObject: {fileID: 0}
  m_PrefabInstance: {fileID: 0}
  m_PrefabAsset: {fileID: 0}
  m_GameObject: {fileID: 0}
  m_Enabled: 1
  m_EditorHideFlags: 0
  m_Script: {fileID: 11500000, guid: a5c39df5e9edf61458303f0701f586a4, type: 3}
  m_Name: River
  m_EditorClassIdentifier: 
  color: {r: 0, g: 0, b: 0, a: 0}
  walkable: 0
  navigable: 0
  isWater: 1
